{
    "spec_version": "0.2.0",
    "manifests": [
        {
            "chainId": "1eaa0824707c8c16bd25145493bf062aecddfeb56c736f6ba6397f3195f33c9f",
            "manifest": {
                "account": "sebastianmb2",
                "domain": "http://192.168.1.22:8080",
                "appmeta": "http://192.168.1.22:8080/app-metadata.json#c6d82c73f44a80446a4066c6474ecddb5536a4d5c11e570d521c1e1441298173",
                "whitelist": [
                    {
                        "contract": "logintester1",
                        "action": ""
                    },
                    {
                        "contract": "eosio.login",
                        "action": ""
                    }
                ]
            }
        }
    ]
}